
        ==========     _____ _    _ ____  _____  ______          _____  
        =====         / ____| |  | |  _ \|  __ \|  ____|   /\   |  __ \ 
          =====      | (___ | |  | | |_) | |__) | |__     /  \  | |  | |
            ====      \___ \| |  | |  _ <|  _  /|  __|   / /\ \ | |  | |
              ====    ____) | |__| | |_) | | \ \| |____ / ____ \| |__| |
        ==========   |_____/ \____/|____/|_|  \_\______/_/    \_\_____/
	  v1.5.2

//========================== featureCounts setting ===========================\\
||                                                                            ||
||             Input files : 24 BAM files                                     ||
||                           P H1-C.bam                                       ||
||                           P H1-S.bam                                       ||
||                           P H2-C.bam                                       ||
||                           P H2-S.bam                                       ||
||                           P H3-C.bam                                       ||
||                           P H3-S.bam                                       ||
||                           P M1-C.bam                                       ||
||                           P M1-S.bam                                       ||
||                           P M2-C.bam                                       ||
||                           P M2-S.bam                                       ||
||                           P M3-C.bam                                       ||
||                           P M3-S.bam                                       ||
||                           P N1-C.bam                                       ||
||                           P N1-S.bam                                       ||
||                           P N2-C.bam                                       ||
||                           P N2-S.bam                                       ||
||                           P N3-C.bam                                       ||
||                           P N3-S.bam                                       ||
||                           P T1-C.bam                                       ||
||                           P T1-S.bam                                       ||
||                           P T2-C.bam                                       ||
||                           P T2-S.bam                                       ||
||                           P T3-C.bam                                       ||
||                           P T3-S.bam                                       ||
||                                                                            ||
||             Output file : counts.txt                                       ||
||                 Summary : counts.txt.summary                               ||
||              Annotation : /users/aloraine/src/tomatopollen/GeneRegions ... ||
||      Dir for temp files : ./                                               ||
||                                                                            ||
||                 Threads : 1                                                ||
||                   Level : meta-feature level                               ||
||              Paired-end : no                                               ||
||         Strand specific : no                                               ||
||      Multimapping reads : primary only                                     ||
|| Multi-overlapping reads : counted                                          ||
||   Min overlapping bases : 1                                                ||
||                                                                            ||
\\===================== http://subread.sourceforge.net/ ======================//

//================================= Running ==================================\\
||                                                                            ||
|| Load annotation file /users/aloraine/src/tomatopollen/GeneRegions/resu ... ||
||    Features : 34075                                                        ||
||    Meta-features : 34075                                                   ||
||    Chromosomes/contigs : 13                                                ||
||                                                                            ||
|| Process BAM file H1-C.bam...                                               ||
||    Paired-end reads are included.                                          ||
||    Assign reads to features...                                             ||
||    Total reads : 57067382                                                  ||
||    Successfully assigned reads : 34728258 (60.9%)                          ||
||    Running time : 1.14 minutes                                             ||
||                                                                            ||
|| Process BAM file H1-S.bam...                                               ||
||    Paired-end reads are included.                                          ||
||    Assign reads to features...                                             ||
||    Total reads : 52666847                                                  ||
||    Successfully assigned reads : 29124130 (55.3%)                          ||
||    Running time : 1.05 minutes                                             ||
||                                                                            ||
|| Process BAM file H2-C.bam...                                               ||
||    Paired-end reads are included.                                          ||
||    Assign reads to features...                                             ||
||    Total reads : 56717366                                                  ||
||    Successfully assigned reads : 33222295 (58.6%)                          ||
||    Running time : 1.20 minutes                                             ||
||                                                                            ||
|| Process BAM file H2-S.bam...                                               ||
||    Paired-end reads are included.                                          ||
||    Assign reads to features...                                             ||
||    Total reads : 55959516                                                  ||
||    Successfully assigned reads : 32651318 (58.3%)                          ||
||    Running time : 1.18 minutes                                             ||
||                                                                            ||
|| Process BAM file H3-C.bam...                                               ||
||    Paired-end reads are included.                                          ||
||    Assign reads to features...                                             ||
||    Total reads : 52481869                                                  ||
||    Successfully assigned reads : 30697284 (58.5%)                          ||
||    Running time : 1.11 minutes                                             ||
||                                                                            ||
|| Process BAM file H3-S.bam...                                               ||
||    Paired-end reads are included.                                          ||
||    Assign reads to features...                                             ||
||    Total reads : 53616861                                                  ||
||    Successfully assigned reads : 31215717 (58.2%)                          ||
||    Running time : 1.13 minutes                                             ||
||                                                                            ||
|| Process BAM file M1-C.bam...                                               ||
||    Paired-end reads are included.                                          ||
||    Assign reads to features...                                             ||
||    Total reads : 56803348                                                  ||
||    Successfully assigned reads : 33425567 (58.8%)                          ||
||    Running time : 1.20 minutes                                             ||
||                                                                            ||
|| Process BAM file M1-S.bam...                                               ||
||    Paired-end reads are included.                                          ||
||    Assign reads to features...                                             ||
||    Total reads : 50543753                                                  ||
||    Successfully assigned reads : 28437576 (56.3%)                          ||
||    Running time : 1.07 minutes                                             ||
||                                                                            ||
|| Process BAM file M2-C.bam...                                               ||
||    Paired-end reads are included.                                          ||
||    Assign reads to features...                                             ||
||    Total reads : 51785283                                                  ||
||    Successfully assigned reads : 30624998 (59.1%)                          ||
||    Running time : 1.10 minutes                                             ||
||                                                                            ||
|| Process BAM file M2-S.bam...                                               ||
||    Paired-end reads are included.                                          ||
||    Assign reads to features...                                             ||
||    Total reads : 56488713                                                  ||
||    Successfully assigned reads : 34705232 (61.4%)                          ||
||    Running time : 1.20 minutes                                             ||
||                                                                            ||
|| Process BAM file M3-C.bam...                                               ||
||    Paired-end reads are included.                                          ||
||    Assign reads to features...                                             ||
||    Total reads : 59614395                                                  ||
||    Successfully assigned reads : 34765464 (58.3%)                          ||
||    Running time : 1.26 minutes                                             ||
||                                                                            ||
|| Process BAM file M3-S.bam...                                               ||
||    Paired-end reads are included.                                          ||
||    Assign reads to features...                                             ||
||    Total reads : 52224993                                                  ||
||    Successfully assigned reads : 30198587 (57.8%)                          ||
||    Running time : 1.10 minutes                                             ||
||                                                                            ||
|| Process BAM file N1-C.bam...                                               ||
||    Paired-end reads are included.                                          ||
||    Assign reads to features...                                             ||
||    Total reads : 54579932                                                  ||
||    Successfully assigned reads : 31226771 (57.2%)                          ||
||    Running time : 1.15 minutes                                             ||
||                                                                            ||
|| Process BAM file N1-S.bam...                                               ||
||    Paired-end reads are included.                                          ||
||    Assign reads to features...                                             ||
||    Total reads : 52943871                                                  ||
||    Successfully assigned reads : 30190972 (57.0%)                          ||
||    Running time : 1.12 minutes                                             ||
||                                                                            ||
|| Process BAM file N2-C.bam...                                               ||
||    Paired-end reads are included.                                          ||
||    Assign reads to features...                                             ||
||    Total reads : 53554190                                                  ||
||    Successfully assigned reads : 31468266 (58.8%)                          ||
||    Running time : 1.13 minutes                                             ||
||                                                                            ||
|| Process BAM file N2-S.bam...                                               ||
||    Paired-end reads are included.                                          ||
||    Assign reads to features...                                             ||
||    Total reads : 52493179                                                  ||
||    Successfully assigned reads : 30807880 (58.7%)                          ||
||    Running time : 1.11 minutes                                             ||
||                                                                            ||
|| Process BAM file N3-C.bam...                                               ||
||    Paired-end reads are included.                                          ||
||    Assign reads to features...                                             ||
||    Total reads : 51781329                                                  ||
||    Successfully assigned reads : 31670838 (61.2%)                          ||
||    Running time : 1.10 minutes                                             ||
||                                                                            ||
|| Process BAM file N3-S.bam...                                               ||
||    Paired-end reads are included.                                          ||
||    Assign reads to features...                                             ||
||    Total reads : 48333972                                                  ||
||    Successfully assigned reads : 27724880 (57.4%)                          ||
||    Running time : 1.02 minutes                                             ||
||                                                                            ||
|| Process BAM file T1-C.bam...                                               ||
||    Paired-end reads are included.                                          ||
||    Assign reads to features...                                             ||
||    Total reads : 64979156                                                  ||
||    Successfully assigned reads : 39105638 (60.2%)                          ||
||    Running time : 1.37 minutes                                             ||
||                                                                            ||
|| Process BAM file T1-S.bam...                                               ||
||    Paired-end reads are included.                                          ||
||    Assign reads to features...                                             ||
||    Total reads : 50749194                                                  ||
||    Successfully assigned reads : 28834323 (56.8%)                          ||
||    Running time : 1.07 minutes                                             ||
||                                                                            ||
|| Process BAM file T2-C.bam...                                               ||
||    Paired-end reads are included.                                          ||
||    Assign reads to features...                                             ||
||    Total reads : 48657466                                                  ||
||    Successfully assigned reads : 27654424 (56.8%)                          ||
||    Running time : 1.03 minutes                                             ||
||                                                                            ||
|| Process BAM file T2-S.bam...                                               ||
||    Paired-end reads are included.                                          ||
||    Assign reads to features...                                             ||
||    Total reads : 64968327                                                  ||
||    Successfully assigned reads : 36199458 (55.7%)                          ||
||    Running time : 1.37 minutes                                             ||
||                                                                            ||
|| Process BAM file T3-C.bam...                                               ||
||    Paired-end reads are included.                                          ||
||    Assign reads to features...                                             ||
||    Total reads : 52667506                                                  ||
||    Successfully assigned reads : 30016567 (57.0%)                          ||
||    Running time : 1.11 minutes                                             ||
||                                                                            ||
|| Process BAM file T3-S.bam...                                               ||
||    Paired-end reads are included.                                          ||
||    Assign reads to features...                                             ||
||    Total reads : 57526671                                                  ||
||    Successfully assigned reads : 32575720 (56.6%)                          ||
||    Running time : 1.22 minutes                                             ||
||                                                                            ||
||                         Read assignment finished.                          ||
||                                                                            ||
|| Summary of counting results can be found in file "counts.txt"              ||
||                                                                            ||
\\===================== http://subread.sourceforge.net/ ======================//

